{
   "prognos": {
      "currentManadslon": 35000,
      "currentAlderAr": 63,
      "finalManadslon": 35000,
      "forstaPensionsutbetalningen": 10400,
      "forvantadLivslangd": 83,
      "inrapporteradManadslonInstitutNamn": null,
      "livsvarig": false,
      "loneantagandetyp": "Angiven",
      "prognosperiodList": [
         {
            "fromAlderYear": 70,
            "fromAlderMonth": 0,
            "pensionPerManad": {
               "ap": {
                  "totalt": 0,
                  "prognostypBelopp": []
               },
               "tjp": {
                  "totalt": 10375,
                  "totaltEgeninmatning": 0,
                  "prognostypBelopp": []
               },
               "pps": {
                  "totalt": 0,
                  "totaltEgeninmatning": 0,
                  "prognostypBelopp": []
               }
            },
            "isLivsvarig": false
         },
         {
            "fromAlderYear": 80,
            "fromAlderMonth": 0,
            "pensionPerManad": {
               "ap": {
                  "totalt": 15000,
                  "prognostypBelopp": []
               },
               "tjp": {
                  "totalt": 18005,
                  "totaltEgeninmatning": 0,
                  "prognostypBelopp": []
               },
               "pps": {
                  "totalt": 6841,
                  "totaltEgeninmatning": 0,
                  "prognostypBelopp": []
               }
            },
            "isLivsvarig": false
         },
         {
            "fromAlderYear": 85,
            "fromAlderMonth": 0,
            "pensionPerManad": {
               "ap": {
                  "totalt": 15000,
                  "prognostypBelopp": []
               },
               "tjp": {
                  "totalt": 11127,
                  "totaltEgeninmatning": 0,
                  "prognostypBelopp": []
               },
               "pps": {
                  "totalt": 6841,
                  "totaltEgeninmatning": 0,
                  "prognostypBelopp": []
               }
            },
            "isLivsvarig": false
         },
         {
            "fromAlderYear": 90,
            "fromAlderMonth": 0,
            "pensionPerManad": {
               "ap": {
                  "totalt": 15000,
                  "prognostypBelopp": []
               },
               "tjp": {
                  "totalt": 10552,
                  "totaltEgeninmatning": 0,
                  "prognostypBelopp": []
               },
               "pps": {
                  "totalt": 12000,
                  "totaltEgeninmatning": 0,
                  "prognostypBelopp": []
               }
            },
            "isLivsvarig": true
         }
      ]
   },
   "fromYear": 64,
   "toYear": 90,
   "forvantadLivslangd": 83,
   "showDifference": false
}